{
	"info": {
		"_postman_id": "b534a932-3ddc-4dca-9be0-6e34e9c1c663",
		"name": "case-study",
		"schema": "https://schema.getpostman.com/json/collection/v2.1.0/collection.json"
	},
	"item": [
		{
			"name": "get /",
			"event": [
				{
					"listen": "test",
					"script": {
						"id": "ed59ca50-4c4d-442b-8bfc-a58d2c4094f6",
						"type": "text/javascript",
						"exec": [
							"pm.test(\"Status code is 200\", function () {",
							"    pm.response.to.have.status(200);",
							"});"
						]
					}
				}
			],
			"request": {
				"method": "GET",
				"header": [],
				"body": {},
				"url": {
					"raw": "http://localhost:8999/",
					"protocol": "http",
					"host": [
						"localhost"
					],
					"port": "8999",
					"path": [
						""
					]
				}
			},
			"response": []
		}
	]
}